"Andate sino a Kentucky Avenue: se passate dal ""Go"" ritirate € 500",500,,24,
Fate tre passi indietro,,,-3,
"Maturano le cedole delle vostre cartelle di rendit; ritirate € 375",375,,,
"Andate avanti sino al ""Go""",,,0,
Avete vinto un terno al lotto: ritirate € 250,250,,,
"Uscite gratis di prigione, se ci siete: potete conservare questo cartoncino sino al momento di servirvene",,,,TRUE
"La Banca vi paga gli interessi del vostro Conto Corrente ritirate € 125",125,,,
Matrimonio in famiglia: spese impreviste € 375,,375,,
"Andate a B&O Railroad: se passate dal ""Via"" ritirate € 500",500,,25,
"Andate sino a St. Charles Place: se passate dal ""Go"" ritirate € 500",500,,11,
Andate fino a Boardwalk,,,39,
Multa di € 40 per aver guidato senza patente,,40,,
Versate € 50 per beneficienza,,50,,
"Andate in prigione direttamente e senza passare dal ""Go""",,,0,